<?xml version="1.0" encoding="utf-8"?>
<!DOCTYPE eagle SYSTEM "eagle.dtd">
<eagle version="8.5.0">
<drawing>
<settings>
<setting alwaysvectorfont="no"/>
<setting verticaltext="up"/>
</settings>
<grid distance="0.1" unitdist="inch" unit="inch" style="lines" multiple="1" display="no" altdistance="0.01" altunitdist="inch" altunit="inch"/>
<layers>
<layer number="1" name="Top" color="4" fill="1" visible="no" active="no"/>
<layer number="16" name="Bottom" color="1" fill="1" visible="no" active="no"/>
<layer number="17" name="Pads" color="2" fill="1" visible="no" active="no"/>
<layer number="18" name="Vias" color="2" fill="1" visible="no" active="no"/>
<layer number="19" name="Unrouted" color="6" fill="1" visible="no" active="no"/>
<layer number="20" name="Dimension" color="15" fill="1" visible="no" active="no"/>
<layer number="21" name="tPlace" color="7" fill="1" visible="no" active="no"/>
<layer number="22" name="bPlace" color="7" fill="1" visible="no" active="no"/>
<layer number="23" name="tOrigins" color="15" fill="1" visible="no" active="no"/>
<layer number="24" name="bOrigins" color="15" fill="1" visible="no" active="no"/>
<layer number="25" name="tNames" color="7" fill="1" visible="no" active="no"/>
<layer number="26" name="bNames" color="7" fill="1" visible="no" active="no"/>
<layer number="27" name="tValues" color="7" fill="1" visible="no" active="no"/>
<layer number="28" name="bValues" color="7" fill="1" visible="no" active="no"/>
<layer number="29" name="tStop" color="7" fill="3" visible="no" active="no"/>
<layer number="30" name="bStop" color="7" fill="6" visible="no" active="no"/>
<layer number="31" name="tCream" color="7" fill="4" visible="no" active="no"/>
<layer number="32" name="bCream" color="7" fill="5" visible="no" active="no"/>
<layer number="33" name="tFinish" color="6" fill="3" visible="no" active="no"/>
<layer number="34" name="bFinish" color="6" fill="6" visible="no" active="no"/>
<layer number="35" name="tGlue" color="7" fill="4" visible="no" active="no"/>
<layer number="36" name="bGlue" color="7" fill="5" visible="no" active="no"/>
<layer number="37" name="tTest" color="7" fill="1" visible="no" active="no"/>
<layer number="38" name="bTest" color="7" fill="1" visible="no" active="no"/>
<layer number="39" name="tKeepout" color="4" fill="11" visible="no" active="no"/>
<layer number="40" name="bKeepout" color="1" fill="11" visible="no" active="no"/>
<layer number="41" name="tRestrict" color="4" fill="10" visible="no" active="no"/>
<layer number="42" name="bRestrict" color="1" fill="10" visible="no" active="no"/>
<layer number="43" name="vRestrict" color="2" fill="10" visible="no" active="no"/>
<layer number="44" name="Drills" color="7" fill="1" visible="no" active="no"/>
<layer number="45" name="Holes" color="7" fill="1" visible="no" active="no"/>
<layer number="46" name="Milling" color="3" fill="1" visible="no" active="no"/>
<layer number="47" name="Measures" color="7" fill="1" visible="no" active="no"/>
<layer number="48" name="Document" color="7" fill="1" visible="no" active="no"/>
<layer number="49" name="Reference" color="7" fill="1" visible="no" active="no"/>
<layer number="51" name="tDocu" color="7" fill="1" visible="no" active="no"/>
<layer number="52" name="bDocu" color="7" fill="1" visible="no" active="no"/>
<layer number="88" name="SimResults" color="9" fill="1" visible="yes" active="yes"/>
<layer number="89" name="SimProbes" color="9" fill="1" visible="yes" active="yes"/>
<layer number="90" name="Modules" color="5" fill="1" visible="yes" active="yes"/>
<layer number="91" name="Nets" color="2" fill="1" visible="yes" active="yes"/>
<layer number="92" name="Busses" color="1" fill="1" visible="yes" active="yes"/>
<layer number="93" name="Pins" color="2" fill="1" visible="no" active="yes"/>
<layer number="94" name="Symbols" color="4" fill="1" visible="yes" active="yes"/>
<layer number="95" name="Names" color="7" fill="1" visible="yes" active="yes"/>
<layer number="96" name="Values" color="7" fill="1" visible="yes" active="yes"/>
<layer number="97" name="Info" color="7" fill="1" visible="yes" active="yes"/>
<layer number="98" name="Guide" color="6" fill="1" visible="yes" active="yes"/>
</layers>
<schematic xreflabel="%F%N/%S.%C%R" xrefpart="/%S.%C%R">
<libraries>
<library name="pinhead">
<description>&lt;b&gt;Pin Header Connectors&lt;/b&gt;&lt;p&gt;
&lt;author&gt;Created by librarian@cadsoft.de&lt;/author&gt;</description>
<packages>
<package name="2X05">
<description>&lt;b&gt;PIN HEADER&lt;/b&gt;</description>
<wire x1="-6.35" y1="-1.905" x2="-5.715" y2="-2.54" width="0.1524" layer="21"/>
<wire x1="-4.445" y1="-2.54" x2="-3.81" y2="-1.905" width="0.1524" layer="21"/>
<wire x1="-3.81" y1="-1.905" x2="-3.175" y2="-2.54" width="0.1524" layer="21"/>
<wire x1="-1.905" y1="-2.54" x2="-1.27" y2="-1.905" width="0.1524" layer="21"/>
<wire x1="-1.27" y1="-1.905" x2="-0.635" y2="-2.54" width="0.1524" layer="21"/>
<wire x1="0.635" y1="-2.54" x2="1.27" y2="-1.905" width="0.1524" layer="21"/>
<wire x1="1.27" y1="-1.905" x2="1.905" y2="-2.54" width="0.1524" layer="21"/>
<wire x1="3.175" y1="-2.54" x2="3.81" y2="-1.905" width="0.1524" layer="21"/>
<wire x1="-6.35" y1="-1.905" x2="-6.35" y2="1.905" width="0.1524" layer="21"/>
<wire x1="-6.35" y1="1.905" x2="-5.715" y2="2.54" width="0.1524" layer="21"/>
<wire x1="-5.715" y1="2.54" x2="-4.445" y2="2.54" width="0.1524" layer="21"/>
<wire x1="-4.445" y1="2.54" x2="-3.81" y2="1.905" width="0.1524" layer="21"/>
<wire x1="-3.81" y1="1.905" x2="-3.175" y2="2.54" width="0.1524" layer="21"/>
<wire x1="-3.175" y1="2.54" x2="-1.905" y2="2.54" width="0.1524" layer="21"/>
<wire x1="-1.905" y1="2.54" x2="-1.27" y2="1.905" width="0.1524" layer="21"/>
<wire x1="-1.27" y1="1.905" x2="-0.635" y2="2.54" width="0.1524" layer="21"/>
<wire x1="-0.635" y1="2.54" x2="0.635" y2="2.54" width="0.1524" layer="21"/>
<wire x1="0.635" y1="2.54" x2="1.27" y2="1.905" width="0.1524" layer="21"/>
<wire x1="1.27" y1="1.905" x2="1.905" y2="2.54" width="0.1524" layer="21"/>
<wire x1="1.905" y1="2.54" x2="3.175" y2="2.54" width="0.1524" layer="21"/>
<wire x1="3.175" y1="2.54" x2="3.81" y2="1.905" width="0.1524" layer="21"/>
<wire x1="-3.81" y1="1.905" x2="-3.81" y2="-1.905" width="0.1524" layer="21"/>
<wire x1="-1.27" y1="1.905" x2="-1.27" y2="-1.905" width="0.1524" layer="21"/>
<wire x1="1.27" y1="1.905" x2="1.27" y2="-1.905" width="0.1524" layer="21"/>
<wire x1="3.81" y1="1.905" x2="3.81" y2="-1.905" width="0.1524" layer="21"/>
<wire x1="1.905" y1="-2.54" x2="3.175" y2="-2.54" width="0.1524" layer="21"/>
<wire x1="-0.635" y1="-2.54" x2="0.635" y2="-2.54" width="0.1524" layer="21"/>
<wire x1="-3.175" y1="-2.54" x2="-1.905" y2="-2.54" width="0.1524" layer="21"/>
<wire x1="-5.715" y1="-2.54" x2="-4.445" y2="-2.54" width="0.1524" layer="21"/>
<wire x1="3.81" y1="-1.905" x2="4.445" y2="-2.54" width="0.1524" layer="21"/>
<wire x1="5.715" y1="-2.54" x2="6.35" y2="-1.905" width="0.1524" layer="21"/>
<wire x1="3.81" y1="1.905" x2="4.445" y2="2.54" width="0.1524" layer="21"/>
<wire x1="4.445" y1="2.54" x2="5.715" y2="2.54" width="0.1524" layer="21"/>
<wire x1="5.715" y1="2.54" x2="6.35" y2="1.905" width="0.1524" layer="21"/>
<wire x1="6.35" y1="1.905" x2="6.35" y2="-1.905" width="0.1524" layer="21"/>
<wire x1="4.445" y1="-2.54" x2="5.715" y2="-2.54" width="0.1524" layer="21"/>
<pad name="1" x="-5.08" y="-1.27" drill="1.016" shape="octagon"/>
<pad name="2" x="-5.08" y="1.27" drill="1.016" shape="octagon"/>
<pad name="3" x="-2.54" y="-1.27" drill="1.016" shape="octagon"/>
<pad name="4" x="-2.54" y="1.27" drill="1.016" shape="octagon"/>
<pad name="5" x="0" y="-1.27" drill="1.016" shape="octagon"/>
<pad name="6" x="0" y="1.27" drill="1.016" shape="octagon"/>
<pad name="7" x="2.54" y="-1.27" drill="1.016" shape="octagon"/>
<pad name="8" x="2.54" y="1.27" drill="1.016" shape="octagon"/>
<pad name="9" x="5.08" y="-1.27" drill="1.016" shape="octagon"/>
<pad name="10" x="5.08" y="1.27" drill="1.016" shape="octagon"/>
<text x="-6.35" y="3.175" size="1.27" layer="25" ratio="10">&gt;NAME</text>
<text x="-6.35" y="-4.445" size="1.27" layer="27">&gt;VALUE</text>
<rectangle x1="-5.334" y1="-1.524" x2="-4.826" y2="-1.016" layer="51"/>
<rectangle x1="-5.334" y1="1.016" x2="-4.826" y2="1.524" layer="51"/>
<rectangle x1="-2.794" y1="1.016" x2="-2.286" y2="1.524" layer="51"/>
<rectangle x1="-2.794" y1="-1.524" x2="-2.286" y2="-1.016" layer="51"/>
<rectangle x1="-0.254" y1="1.016" x2="0.254" y2="1.524" layer="51"/>
<rectangle x1="-0.254" y1="-1.524" x2="0.254" y2="-1.016" layer="51"/>
<rectangle x1="2.286" y1="1.016" x2="2.794" y2="1.524" layer="51"/>
<rectangle x1="2.286" y1="-1.524" x2="2.794" y2="-1.016" layer="51"/>
<rectangle x1="4.826" y1="1.016" x2="5.334" y2="1.524" layer="51"/>
<rectangle x1="4.826" y1="-1.524" x2="5.334" y2="-1.016" layer="51"/>
</package>
<package name="2X05/90">
<description>&lt;b&gt;PIN HEADER&lt;/b&gt;</description>
<wire x1="-6.35" y1="-1.905" x2="-3.81" y2="-1.905" width="0.1524" layer="21"/>
<wire x1="-3.81" y1="-1.905" x2="-3.81" y2="0.635" width="0.1524" layer="21"/>
<wire x1="-3.81" y1="0.635" x2="-6.35" y2="0.635" width="0.1524" layer="21"/>
<wire x1="-6.35" y1="0.635" x2="-6.35" y2="-1.905" width="0.1524" layer="21"/>
<wire x1="-5.08" y1="6.985" x2="-5.08" y2="1.27" width="0.762" layer="21"/>
<wire x1="-3.81" y1="-1.905" x2="-1.27" y2="-1.905" width="0.1524" layer="21"/>
<wire x1="-1.27" y1="-1.905" x2="-1.27" y2="0.635" width="0.1524" layer="21"/>
<wire x1="-1.27" y1="0.635" x2="-3.81" y2="0.635" width="0.1524" layer="21"/>
<wire x1="-2.54" y1="6.985" x2="-2.54" y2="1.27" width="0.762" layer="21"/>
<wire x1="-1.27" y1="-1.905" x2="1.27" y2="-1.905" width="0.1524" layer="21"/>
<wire x1="1.27" y1="-1.905" x2="1.27" y2="0.635" width="0.1524" layer="21"/>
<wire x1="1.27" y1="0.635" x2="-1.27" y2="0.635" width="0.1524" layer="21"/>
<wire x1="0" y1="6.985" x2="0" y2="1.27" width="0.762" layer="21"/>
<wire x1="1.27" y1="-1.905" x2="3.81" y2="-1.905" width="0.1524" layer="21"/>
<wire x1="3.81" y1="-1.905" x2="3.81" y2="0.635" width="0.1524" layer="21"/>
<wire x1="3.81" y1="0.635" x2="1.27" y2="0.635" width="0.1524" layer="21"/>
<wire x1="2.54" y1="6.985" x2="2.54" y2="1.27" width="0.762" layer="21"/>
<wire x1="3.81" y1="-1.905" x2="6.35" y2="-1.905" width="0.1524" layer="21"/>
<wire x1="6.35" y1="-1.905" x2="6.35" y2="0.635" width="0.1524" layer="21"/>
<wire x1="6.35" y1="0.635" x2="3.81" y2="0.635" width="0.1524" layer="21"/>
<wire x1="5.08" y1="6.985" x2="5.08" y2="1.27" width="0.762" layer="21"/>
<pad name="2" x="-5.08" y="-3.81" drill="1.016" shape="octagon"/>
<pad name="4" x="-2.54" y="-3.81" drill="1.016" shape="octagon"/>
<pad name="6" x="0" y="-3.81" drill="1.016" shape="octagon"/>
<pad name="8" x="2.54" y="-3.81" drill="1.016" shape="octagon"/>
<pad name="10" x="5.08" y="-3.81" drill="1.016" shape="octagon"/>
<pad name="1" x="-5.08" y="-6.35" drill="1.016" shape="octagon"/>
<pad name="3" x="-2.54" y="-6.35" drill="1.016" shape="octagon"/>
<pad name="5" x="0" y="-6.35" drill="1.016" shape="octagon"/>
<pad name="7" x="2.54" y="-6.35" drill="1.016" shape="octagon"/>
<pad name="9" x="5.08" y="-6.35" drill="1.016" shape="octagon"/>
<text x="-6.985" y="-3.81" size="1.27" layer="25" ratio="10" rot="R90">&gt;NAME</text>
<text x="8.255" y="-3.81" size="1.27" layer="27" rot="R90">&gt;VALUE</text>
<rectangle x1="-5.461" y1="0.635" x2="-4.699" y2="1.143" layer="21"/>
<rectangle x1="-2.921" y1="0.635" x2="-2.159" y2="1.143" layer="21"/>
<rectangle x1="-0.381" y1="0.635" x2="0.381" y2="1.143" layer="21"/>
<rectangle x1="2.159" y1="0.635" x2="2.921" y2="1.143" layer="21"/>
<rectangle x1="4.699" y1="0.635" x2="5.461" y2="1.143" layer="21"/>
<rectangle x1="-5.461" y1="-2.921" x2="-4.699" y2="-1.905" layer="21"/>
<rectangle x1="-2.921" y1="-2.921" x2="-2.159" y2="-1.905" layer="21"/>
<rectangle x1="-5.461" y1="-5.461" x2="-4.699" y2="-4.699" layer="21"/>
<rectangle x1="-5.461" y1="-4.699" x2="-4.699" y2="-2.921" layer="51"/>
<rectangle x1="-2.921" y1="-4.699" x2="-2.159" y2="-2.921" layer="51"/>
<rectangle x1="-2.921" y1="-5.461" x2="-2.159" y2="-4.699" layer="21"/>
<rectangle x1="-0.381" y1="-2.921" x2="0.381" y2="-1.905" layer="21"/>
<rectangle x1="2.159" y1="-2.921" x2="2.921" y2="-1.905" layer="21"/>
<rectangle x1="-0.381" y1="-5.461" x2="0.381" y2="-4.699" layer="21"/>
<rectangle x1="-0.381" y1="-4.699" x2="0.381" y2="-2.921" layer="51"/>
<rectangle x1="2.159" y1="-4.699" x2="2.921" y2="-2.921" layer="51"/>
<rectangle x1="2.159" y1="-5.461" x2="2.921" y2="-4.699" layer="21"/>
<rectangle x1="4.699" y1="-2.921" x2="5.461" y2="-1.905" layer="21"/>
<rectangle x1="4.699" y1="-5.461" x2="5.461" y2="-4.699" layer="21"/>
<rectangle x1="4.699" y1="-4.699" x2="5.461" y2="-2.921" layer="51"/>
</package>
<package name="1X02">
<description>&lt;b&gt;PIN HEADER&lt;/b&gt;</description>
<wire x1="-1.905" y1="1.27" x2="-0.635" y2="1.27" width="0.1524" layer="21"/>
<wire x1="-0.635" y1="1.27" x2="0" y2="0.635" width="0.1524" layer="21"/>
<wire x1="0" y1="0.635" x2="0" y2="-0.635" width="0.1524" layer="21"/>
<wire x1="0" y1="-0.635" x2="-0.635" y2="-1.27" width="0.1524" layer="21"/>
<wire x1="-2.54" y1="0.635" x2="-2.54" y2="-0.635" width="0.1524" layer="21"/>
<wire x1="-1.905" y1="1.27" x2="-2.54" y2="0.635" width="0.1524" layer="21"/>
<wire x1="-2.54" y1="-0.635" x2="-1.905" y2="-1.27" width="0.1524" layer="21"/>
<wire x1="-0.635" y1="-1.27" x2="-1.905" y2="-1.27" width="0.1524" layer="21"/>
<wire x1="0" y1="0.635" x2="0.635" y2="1.27" width="0.1524" layer="21"/>
<wire x1="0.635" y1="1.27" x2="1.905" y2="1.27" width="0.1524" layer="21"/>
<wire x1="1.905" y1="1.27" x2="2.54" y2="0.635" width="0.1524" layer="21"/>
<wire x1="2.54" y1="0.635" x2="2.54" y2="-0.635" width="0.1524" layer="21"/>
<wire x1="2.54" y1="-0.635" x2="1.905" y2="-1.27" width="0.1524" layer="21"/>
<wire x1="1.905" y1="-1.27" x2="0.635" y2="-1.27" width="0.1524" layer="21"/>
<wire x1="0.635" y1="-1.27" x2="0" y2="-0.635" width="0.1524" layer="21"/>
<pad name="1" x="-1.27" y="0" drill="1.016" shape="long" rot="R90"/>
<pad name="2" x="1.27" y="0" drill="1.016" shape="long" rot="R90"/>
<text x="-2.6162" y="1.8288" size="1.27" layer="25" ratio="10">&gt;NAME</text>
<text x="-2.54" y="-3.175" size="1.27" layer="27">&gt;VALUE</text>
<rectangle x1="-1.524" y1="-0.254" x2="-1.016" y2="0.254" layer="51"/>
<rectangle x1="1.016" y1="-0.254" x2="1.524" y2="0.254" layer="51"/>
</package>
<package name="1X02/90">
<description>&lt;b&gt;PIN HEADER&lt;/b&gt;</description>
<wire x1="-2.54" y1="-1.905" x2="0" y2="-1.905" width="0.1524" layer="21"/>
<wire x1="0" y1="-1.905" x2="0" y2="0.635" width="0.1524" layer="21"/>
<wire x1="0" y1="0.635" x2="-2.54" y2="0.635" width="0.1524" layer="21"/>
<wire x1="-2.54" y1="0.635" x2="-2.54" y2="-1.905" width="0.1524" layer="21"/>
<wire x1="-1.27" y1="6.985" x2="-1.27" y2="1.27" width="0.762" layer="21"/>
<wire x1="0" y1="-1.905" x2="2.54" y2="-1.905" width="0.1524" layer="21"/>
<wire x1="2.54" y1="-1.905" x2="2.54" y2="0.635" width="0.1524" layer="21"/>
<wire x1="2.54" y1="0.635" x2="0" y2="0.635" width="0.1524" layer="21"/>
<wire x1="1.27" y1="6.985" x2="1.27" y2="1.27" width="0.762" layer="21"/>
<pad name="1" x="-1.27" y="-3.81" drill="1.016" shape="long" rot="R90"/>
<pad name="2" x="1.27" y="-3.81" drill="1.016" shape="long" rot="R90"/>
<text x="-3.175" y="-3.81" size="1.27" layer="25" ratio="10" rot="R90">&gt;NAME</text>
<text x="4.445" y="-3.81" size="1.27" layer="27" rot="R90">&gt;VALUE</text>
<rectangle x1="-1.651" y1="0.635" x2="-0.889" y2="1.143" layer="21"/>
<rectangle x1="0.889" y1="0.635" x2="1.651" y2="1.143" layer="21"/>
<rectangle x1="-1.651" y1="-2.921" x2="-0.889" y2="-1.905" layer="21"/>
<rectangle x1="0.889" y1="-2.921" x2="1.651" y2="-1.905" layer="21"/>
</package>
<package name="1X03">
<description>&lt;b&gt;PIN HEADER&lt;/b&gt;</description>
<wire x1="-3.175" y1="1.27" x2="-1.905" y2="1.27" width="0.1524" layer="21"/>
<wire x1="-1.905" y1="1.27" x2="-1.27" y2="0.635" width="0.1524" layer="21"/>
<wire x1="-1.27" y1="0.635" x2="-1.27" y2="-0.635" width="0.1524" layer="21"/>
<wire x1="-1.27" y1="-0.635" x2="-1.905" y2="-1.27" width="0.1524" layer="21"/>
<wire x1="-1.27" y1="0.635" x2="-0.635" y2="1.27" width="0.1524" layer="21"/>
<wire x1="-0.635" y1="1.27" x2="0.635" y2="1.27" width="0.1524" layer="21"/>
<wire x1="0.635" y1="1.27" x2="1.27" y2="0.635" width="0.1524" layer="21"/>
<wire x1="1.27" y1="0.635" x2="1.27" y2="-0.635" width="0.1524" layer="21"/>
<wire x1="1.27" y1="-0.635" x2="0.635" y2="-1.27" width="0.1524" layer="21"/>
<wire x1="0.635" y1="-1.27" x2="-0.635" y2="-1.27" width="0.1524" layer="21"/>
<wire x1="-0.635" y1="-1.27" x2="-1.27" y2="-0.635" width="0.1524" layer="21"/>
<wire x1="-3.81" y1="0.635" x2="-3.81" y2="-0.635" width="0.1524" layer="21"/>
<wire x1="-3.175" y1="1.27" x2="-3.81" y2="0.635" width="0.1524" layer="21"/>
<wire x1="-3.81" y1="-0.635" x2="-3.175" y2="-1.27" width="0.1524" layer="21"/>
<wire x1="-1.905" y1="-1.27" x2="-3.175" y2="-1.27" width="0.1524" layer="21"/>
<wire x1="1.27" y1="0.635" x2="1.905" y2="1.27" width="0.1524" layer="21"/>
<wire x1="1.905" y1="1.27" x2="3.175" y2="1.27" width="0.1524" layer="21"/>
<wire x1="3.175" y1="1.27" x2="3.81" y2="0.635" width="0.1524" layer="21"/>
<wire x1="3.81" y1="0.635" x2="3.81" y2="-0.635" width="0.1524" layer="21"/>
<wire x1="3.81" y1="-0.635" x2="3.175" y2="-1.27" width="0.1524" layer="21"/>
<wire x1="3.175" y1="-1.27" x2="1.905" y2="-1.27" width="0.1524" layer="21"/>
<wire x1="1.905" y1="-1.27" x2="1.27" y2="-0.635" width="0.1524" layer="21"/>
<pad name="1" x="-2.54" y="0" drill="1.016" shape="long" rot="R90"/>
<pad name="2" x="0" y="0" drill="1.016" shape="long" rot="R90"/>
<pad name="3" x="2.54" y="0" drill="1.016" shape="long" rot="R90"/>
<text x="-3.8862" y="1.8288" size="1.27" layer="25" ratio="10">&gt;NAME</text>
<text x="-3.81" y="-3.175" size="1.27" layer="27">&gt;VALUE</text>
<rectangle x1="-0.254" y1="-0.254" x2="0.254" y2="0.254" layer="51"/>
<rectangle x1="-2.794" y1="-0.254" x2="-2.286" y2="0.254" layer="51"/>
<rectangle x1="2.286" y1="-0.254" x2="2.794" y2="0.254" layer="51"/>
</package>
<package name="1X03/90">
<description>&lt;b&gt;PIN HEADER&lt;/b&gt;</description>
<wire x1="-3.81" y1="-1.905" x2="-1.27" y2="-1.905" width="0.1524" layer="21"/>
<wire x1="-1.27" y1="-1.905" x2="-1.27" y2="0.635" width="0.1524" layer="21"/>
<wire x1="-1.27" y1="0.635" x2="-3.81" y2="0.635" width="0.1524" layer="21"/>
<wire x1="-3.81" y1="0.635" x2="-3.81" y2="-1.905" width="0.1524" layer="21"/>
<wire x1="-2.54" y1="6.985" x2="-2.54" y2="1.27" width="0.762" layer="21"/>
<wire x1="-1.27" y1="-1.905" x2="1.27" y2="-1.905" width="0.1524" layer="21"/>
<wire x1="1.27" y1="-1.905" x2="1.27" y2="0.635" width="0.1524" layer="21"/>
<wire x1="1.27" y1="0.635" x2="-1.27" y2="0.635" width="0.1524" layer="21"/>
<wire x1="0" y1="6.985" x2="0" y2="1.27" width="0.762" layer="21"/>
<wire x1="1.27" y1="-1.905" x2="3.81" y2="-1.905" width="0.1524" layer="21"/>
<wire x1="3.81" y1="-1.905" x2="3.81" y2="0.635" width="0.1524" layer="21"/>
<wire x1="3.81" y1="0.635" x2="1.27" y2="0.635" width="0.1524" layer="21"/>
<wire x1="2.54" y1="6.985" x2="2.54" y2="1.27" width="0.762" layer="21"/>
<pad name="1" x="-2.54" y="-3.81" drill="1.016" shape="long" rot="R90"/>
<pad name="2" x="0" y="-3.81" drill="1.016" shape="long" rot="R90"/>
<pad name="3" x="2.54" y="-3.81" drill="1.016" shape="long" rot="R90"/>
<text x="-4.445" y="-3.81" size="1.27" layer="25" ratio="10" rot="R90">&gt;NAME</text>
<text x="5.715" y="-3.81" size="1.27" layer="27" rot="R90">&gt;VALUE</text>
<rectangle x1="-2.921" y1="0.635" x2="-2.159" y2="1.143" layer="21"/>
<rectangle x1="-0.381" y1="0.635" x2="0.381" y2="1.143" layer="21"/>
<rectangle x1="2.159" y1="0.635" x2="2.921" y2="1.143" layer="21"/>
<rectangle x1="-2.921" y1="-2.921" x2="-2.159" y2="-1.905" layer="21"/>
<rectangle x1="-0.381" y1="-2.921" x2="0.381" y2="-1.905" layer="21"/>
<rectangle x1="2.159" y1="-2.921" x2="2.921" y2="-1.905" layer="21"/>
</package>
</packages>
<symbols>
<symbol name="PINH2X5">
<wire x1="-6.35" y1="-7.62" x2="8.89" y2="-7.62" width="0.4064" layer="94"/>
<wire x1="8.89" y1="-7.62" x2="8.89" y2="7.62" width="0.4064" layer="94"/>
<wire x1="8.89" y1="7.62" x2="-6.35" y2="7.62" width="0.4064" layer="94"/>
<wire x1="-6.35" y1="7.62" x2="-6.35" y2="-7.62" width="0.4064" layer="94"/>
<text x="-6.35" y="8.255" size="1.778" layer="95">&gt;NAME</text>
<text x="-6.35" y="-10.16" size="1.778" layer="96">&gt;VALUE</text>
<pin name="1" x="-2.54" y="5.08" visible="pad" length="short" direction="pas" function="dot"/>
<pin name="2" x="5.08" y="5.08" visible="pad" length="short" direction="pas" function="dot" rot="R180"/>
<pin name="3" x="-2.54" y="2.54" visible="pad" length="short" direction="pas" function="dot"/>
<pin name="4" x="5.08" y="2.54" visible="pad" length="short" direction="pas" function="dot" rot="R180"/>
<pin name="5" x="-2.54" y="0" visible="pad" length="short" direction="pas" function="dot"/>
<pin name="6" x="5.08" y="0" visible="pad" length="short" direction="pas" function="dot" rot="R180"/>
<pin name="7" x="-2.54" y="-2.54" visible="pad" length="short" direction="pas" function="dot"/>
<pin name="8" x="5.08" y="-2.54" visible="pad" length="short" direction="pas" function="dot" rot="R180"/>
<pin name="9" x="-2.54" y="-5.08" visible="pad" length="short" direction="pas" function="dot"/>
<pin name="10" x="5.08" y="-5.08" visible="pad" length="short" direction="pas" function="dot" rot="R180"/>
</symbol>
<symbol name="PINHD2">
<wire x1="-6.35" y1="-2.54" x2="1.27" y2="-2.54" width="0.4064" layer="94"/>
<wire x1="1.27" y1="-2.54" x2="1.27" y2="5.08" width="0.4064" layer="94"/>
<wire x1="1.27" y1="5.08" x2="-6.35" y2="5.08" width="0.4064" layer="94"/>
<wire x1="-6.35" y1="5.08" x2="-6.35" y2="-2.54" width="0.4064" layer="94"/>
<text x="-6.35" y="5.715" size="1.778" layer="95">&gt;NAME</text>
<text x="-6.35" y="-5.08" size="1.778" layer="96">&gt;VALUE</text>
<pin name="1" x="-2.54" y="2.54" visible="pad" length="short" direction="pas" function="dot"/>
<pin name="2" x="-2.54" y="0" visible="pad" length="short" direction="pas" function="dot"/>
</symbol>
<symbol name="PINHD3">
<wire x1="-6.35" y1="-5.08" x2="1.27" y2="-5.08" width="0.4064" layer="94"/>
<wire x1="1.27" y1="-5.08" x2="1.27" y2="5.08" width="0.4064" layer="94"/>
<wire x1="1.27" y1="5.08" x2="-6.35" y2="5.08" width="0.4064" layer="94"/>
<wire x1="-6.35" y1="5.08" x2="-6.35" y2="-5.08" width="0.4064" layer="94"/>
<text x="-6.35" y="5.715" size="1.778" layer="95">&gt;NAME</text>
<text x="-6.35" y="-7.62" size="1.778" layer="96">&gt;VALUE</text>
<pin name="1" x="-2.54" y="2.54" visible="pad" length="short" direction="pas" function="dot"/>
<pin name="2" x="-2.54" y="0" visible="pad" length="short" direction="pas" function="dot"/>
<pin name="3" x="-2.54" y="-2.54" visible="pad" length="short" direction="pas" function="dot"/>
</symbol>
</symbols>
<devicesets>
<deviceset name="PINHD-2X5" prefix="JP" uservalue="yes">
<description>&lt;b&gt;PIN HEADER&lt;/b&gt;</description>
<gates>
<gate name="A" symbol="PINH2X5" x="0" y="0"/>
</gates>
<devices>
<device name="" package="2X05">
<connects>
<connect gate="A" pin="1" pad="1"/>
<connect gate="A" pin="10" pad="10"/>
<connect gate="A" pin="2" pad="2"/>
<connect gate="A" pin="3" pad="3"/>
<connect gate="A" pin="4" pad="4"/>
<connect gate="A" pin="5" pad="5"/>
<connect gate="A" pin="6" pad="6"/>
<connect gate="A" pin="7" pad="7"/>
<connect gate="A" pin="8" pad="8"/>
<connect gate="A" pin="9" pad="9"/>
</connects>
<technologies>
<technology name=""/>
</technologies>
</device>
<device name="/90" package="2X05/90">
<connects>
<connect gate="A" pin="1" pad="1"/>
<connect gate="A" pin="10" pad="10"/>
<connect gate="A" pin="2" pad="2"/>
<connect gate="A" pin="3" pad="3"/>
<connect gate="A" pin="4" pad="4"/>
<connect gate="A" pin="5" pad="5"/>
<connect gate="A" pin="6" pad="6"/>
<connect gate="A" pin="7" pad="7"/>
<connect gate="A" pin="8" pad="8"/>
<connect gate="A" pin="9" pad="9"/>
</connects>
<technologies>
<technology name=""/>
</technologies>
</device>
</devices>
</deviceset>
<deviceset name="PINHD-1X2" prefix="JP" uservalue="yes">
<description>&lt;b&gt;PIN HEADER&lt;/b&gt;</description>
<gates>
<gate name="G$1" symbol="PINHD2" x="0" y="0"/>
</gates>
<devices>
<device name="" package="1X02">
<connects>
<connect gate="G$1" pin="1" pad="1"/>
<connect gate="G$1" pin="2" pad="2"/>
</connects>
<technologies>
<technology name=""/>
</technologies>
</device>
<device name="/90" package="1X02/90">
<connects>
<connect gate="G$1" pin="1" pad="1"/>
<connect gate="G$1" pin="2" pad="2"/>
</connects>
<technologies>
<technology name=""/>
</technologies>
</device>
</devices>
</deviceset>
<deviceset name="PINHD-1X3" prefix="JP" uservalue="yes">
<description>&lt;b&gt;PIN HEADER&lt;/b&gt;</description>
<gates>
<gate name="A" symbol="PINHD3" x="0" y="0"/>
</gates>
<devices>
<device name="" package="1X03">
<connects>
<connect gate="A" pin="1" pad="1"/>
<connect gate="A" pin="2" pad="2"/>
<connect gate="A" pin="3" pad="3"/>
</connects>
<technologies>
<technology name=""/>
</technologies>
</device>
<device name="/90" package="1X03/90">
<connects>
<connect gate="A" pin="1" pad="1"/>
<connect gate="A" pin="2" pad="2"/>
<connect gate="A" pin="3" pad="3"/>
</connects>
<technologies>
<technology name=""/>
</technologies>
</device>
</devices>
</deviceset>
</devicesets>
</library>
</libraries>
<attributes>
</attributes>
<variantdefs>
</variantdefs>
<classes>
<class number="0" name="default" width="0" drill="0">
</class>
</classes>
<parts>
<part name="ROT" library="pinhead" deviceset="PINHD-2X5" device=""/>
<part name="STEPPER" library="pinhead" deviceset="PINHD-1X2" device=""/>
<part name="SERVO" library="pinhead" deviceset="PINHD-1X3" device=""/>
</parts>
<sheets>
<sheet>
<plain>
</plain>
<instances>
<instance part="ROT" gate="A" x="68.58" y="48.26"/>
<instance part="STEPPER" gate="G$1" x="43.18" y="71.12"/>
<instance part="SERVO" gate="A" x="111.76" y="76.2"/>
</instances>
<busses>
</busses>
<nets>
</nets>
</sheet>
</sheets>
</schematic>
</drawing>
</eagle>
